{
  "card-cropped": {
    "ID": 1,
    "contour_dimensions": [27, 24],
    "original_size": [176, 110]
  },
  "card": {
    "ID": 2,
    "contour_dimensions": [185, 119],
    "original_size": [200, 200]
  },
  "favicon": {
    "ID": 3,
    "contour_dimensions": [32, 32],
    "original_size": [32, 32]
  },
  "featured1": {
    "ID": 4,
    "contour_dimensions": [323, 599],
    "original_size": [400, 613]
  },
  "featured2": {
    "ID": 5,
    "contour_dimensions": [365, 586],
    "original_size": [400, 594]
  },
  "featured3": {
    "ID": 6,
    "contour_dimensions": [344, 602],
    "original_size": [400, 612]
  },
  "home": {
    "ID": 7,
    "contour_dimensions": [677, 905],
    "original_size": [768, 1024]
  },
  "LonginesChronograph": {
    "ID": 8,
    "contour_dimensions": [394, 691],
    "original_size": [400, 691]
  },
  "new1": {
    "ID": 9,
    "contour_dimensions": [372, 675],
    "original_size": [400, 675]
  },
  "new10": {
    "ID": 10,
    "contour_dimensions": [365, 586],
    "original_size": [400, 594]
  },
  "new11": {
    "ID": 11,
    "contour_dimensions": [323, 599],
    "original_size": [400, 613]
  },
  "new12": {
    "ID": 12,
    "contour_dimensions": [32, 32],
    "original_size": [32, 32]
  },
  "new13": {
    "ID": 13,
    "contour_dimensions": [187, 24],
    "original_size": [225, 225]
  },
  "new14": {
    "ID": 14,
    "contour_dimensions": [874, 621],
    "original_size": [1938, 1090]
  },
  "new15": {
    "ID": 15,
    "contour_dimensions": [193, 243],
    "original_size": [194, 259]
  },
  "new16": {
    "ID": 16,
    "contour_dimensions": [642, 631],
    "original_size": [955, 1000]
  },
  "new18": {
    "ID": 17,
    "contour_dimensions": [485, 607],
    "original_size": [800, 800]
  },
  "new19": {
    "ID": 18,
    "contour_dimensions": [717, 302],
    "original_size": [1000, 600]
  },
  "new2": {
    "ID": 19,
    "contour_dimensions": [372, 675],
    "original_size": [400, 675]
  },
  "new3": {
    "ID": 20,
    "contour_dimensions": [397, 666],
    "original_size": [400, 666]
  },
  "new4": {
    "ID": 21,
    "contour_dimensions": [400, 616],
    "original_size": [400, 636]
  },
  "new5": {
    "ID": 22,
    "contour_dimensions": [900, 558],
    "original_size": [900, 558]
  },
  "new6": {
    "ID": 23,
    "contour_dimensions": [67, 266],
    "original_size": [642, 336]
  },
  "new7": {
    "ID": 24,
    "contour_dimensions": [138, 523],
    "original_size": [313, 612]
  },
  "new8": {
    "ID": 25,
    "contour_dimensions": [677, 905],
    "original_size": [768, 1024]
  },
  "new9": {
    "ID": 26,
    "contour_dimensions": [344, 602],
    "original_size": [400, 612]
  },
  "product1": {
    "ID": 27,
    "contour_dimensions": [384, 641],
    "original_size": [400, 649]
  },
  "product2": {
    "ID": 28,
    "contour_dimensions": [386, 676],
    "original_size": [400, 684]
  },
  "product3": {
    "ID": 29,
    "contour_dimensions": [373, 659],
    "original_size": [400, 679]
  },
  "product4": {
    "ID": 30,
    "contour_dimensions": [394, 650],
    "original_size": [400, 655]
  },
  "product5": {
    "ID": 31,
    "contour_dimensions": [396, 667],
    "original_size": [400, 674]
  },
  "story": {
    "ID": 32,
    "contour_dimensions": [485, 607],
    "original_size": [800, 800]
  },
  "testimonial": {
    "ID": 33,
    "contour_dimensions": [194, 195],
    "original_size": [800, 800]
  },
  "testimonial1": {
    "ID": 34,
    "contour_dimensions": [295, 412],
    "original_size": [430, 430]
  },
  "testimonial2": {
    "ID": 35,
    "contour_dimensions": [126, 117],
    "original_size": [128, 128]
  },
  "testimonial3": {
    "ID": 36,
    "contour_dimensions": [109, 72],
    "original_size": [250, 250]
  }
}
